<?xml version="1.0" encoding="UTF-8" standalone="no"?>
<!-- Created with Inkscape (http://www.inkscape.org/) -->

<svg
   xmlns:dc="http://purl.org/dc/elements/1.1/"
   xmlns:cc="http://creativecommons.org/ns#"
   xmlns:rdf="http://www.w3.org/1999/02/22-rdf-syntax-ns#"
   xmlns:svg="http://www.w3.org/2000/svg"
   xmlns="http://www.w3.org/2000/svg"
   xmlns:sodipodi="http://sodipodi.sourceforge.net/DTD/sodipodi-0.dtd"
   xmlns:inkscape="http://www.inkscape.org/namespaces/inkscape"
   width="90"
   height="90"
   viewBox="0 0 23.8125 23.812502"
   version="1.1"
   id="svg4735"
   inkscape:version="0.92.2 (5c3e80d, 2017-08-06)"
   sodipodi:docname="icon-new-simple.svg">
  <defs
     id="defs4729" />
  <sodipodi:namedview
     id="base"
     pagecolor="#ffffff"
     bordercolor="#666666"
     borderopacity="1.0"
     inkscape:pageopacity="0.0"
     inkscape:pageshadow="2"
     inkscape:zoom="1.4"
     inkscape:cx="-312.02955"
     inkscape:cy="33.045836"
     inkscape:document-units="mm"
     inkscape:current-layer="layer1"
     showgrid="false"
     inkscape:snap-page="true"
     units="px"
     fit-margin-top="5"
     fit-margin-left="5"
     fit-margin-right="5"
     fit-margin-bottom="5"
     inkscape:window-width="1920"
     inkscape:window-height="1017"
     inkscape:window-x="-8"
     inkscape:window-y="-8"
     inkscape:window-maximized="1" />
  <metadata
     id="metadata4732">
    <rdf:RDF>
      <cc:Work
         rdf:about="">
        <dc:format>image/svg+xml</dc:format>
        <dc:type
           rdf:resource="http://purl.org/dc/dcmitype/StillImage" />
        <dc:title></dc:title>
      </cc:Work>
    </rdf:RDF>
  </metadata>
  <g
     inkscape:label="Layer 1"
     inkscape:groupmode="layer"
     id="layer1"
     transform="translate(-93.070304,-133.76421)">
    <path
       inkscape:connector-curvature="0"
       id="path4577"
       style="fill:#75d4d2;stroke-width:0.05879629"
       d="m 101.87746,141.39595 c -0.18893,-0.16915 -0.19814,-0.19606 -0.18974,-0.55475 0.0246,-1.0519 0.57191,-2.12404 1.46108,-2.86228 0.40025,-0.33231 1.07882,-0.66099 1.43534,-0.69525 0.25365,-0.0244 0.30953,-0.009 0.44176,0.12348 0.18572,0.18572 0.20155,0.48865 0.0365,0.69849 -0.0632,0.0803 -0.27012,0.20265 -0.45986,0.27183 -0.9973,0.36364 -1.69472,1.27726 -1.83807,2.40791 -0.064,0.50499 -0.18707,0.68819 -0.50482,0.75167 -0.15048,0.0301 -0.21944,0.005 -0.38218,-0.1411 z m -1.61543,0.0878 c -0.20955,-0.18024 -0.24501,-0.58206 -0.11681,-1.3234 0.30021,-1.7359 1.44074,-3.15703 3.06125,-3.81438 0.58733,-0.23825 0.91721,-0.25265 1.12093,-0.0489 0.10352,0.10352 0.14432,0.20867 0.14432,0.37193 0,0.29025 -0.14069,0.42047 -0.64676,0.59865 -1.16802,0.41123 -2.0933,1.33619 -2.47029,2.46944 -0.0695,0.20897 -0.16001,0.65678 -0.20111,0.99513 -0.0667,0.54882 -0.0919,0.62994 -0.23364,0.75189 -0.20271,0.17437 -0.45494,0.17424 -0.65789,-5.8e-4 z m 2.9508,0.0737 c -0.17492,-0.20788 -0.18711,-0.36599 -0.0645,-0.83667 0.2009,-0.77132 0.7409,-1.45126 1.42811,-1.79815 0.44095,-0.2226 0.59661,-0.22834 0.83152,-0.0307 0.13813,0.11623 0.1809,0.20055 0.1809,0.35664 0,0.28656 -0.0837,0.4125 -0.36944,0.556 -0.59607,0.29934 -0.92468,0.70048 -1.0484,1.27981 -0.0927,0.43386 -0.29021,0.65395 -0.58701,0.65395 -0.17232,0 -0.25138,-0.0385 -0.37117,-0.1809 z m 3.96803,4.20321 c -0.14235,-0.11977 -0.1809,-0.19886 -0.1809,-0.37108 0,-0.26355 0.13216,-0.42157 0.51706,-0.6183 0.48399,-0.24737 0.84584,-0.741 0.93029,-1.2691 0.0584,-0.36521 0.27044,-0.58791 0.55977,-0.58791 0.17817,0 0.26813,0.0379 0.38357,0.16169 0.13932,0.1494 0.14817,0.19075 0.11628,0.54387 -0.075,0.83033 -0.74667,1.76971 -1.53061,2.14057 -0.40529,0.19173 -0.56784,0.19179 -0.79546,0 z m 0.46076,1.54676 c -0.13119,-0.10072 -0.23009,-0.30334 -0.23009,-0.4714 0,-0.21907 0.19066,-0.41353 0.52243,-0.53282 1.02128,-0.36725 1.74131,-1.27557 1.89986,-2.39665 0.0401,-0.28366 0.11009,-0.52725 0.17528,-0.61012 0.23568,-0.29961 0.72157,-0.21478 0.87372,0.15255 0.0951,0.22946 0.001,0.99943 -0.18121,1.48701 -0.15508,0.4145 -0.55118,1.07194 -0.81328,1.3499 -0.69164,0.73347 -1.90396,1.28469 -2.24671,1.02153 z m 0.6198,1.04818 c -0.18911,-0.1891 -0.19449,-0.50066 -0.012,-0.69716 0.0728,-0.0784 0.33746,-0.21486 0.58822,-0.30333 1.0022,-0.35353 1.81597,-1.09785 2.2595,-2.06666 0.20832,-0.45503 0.30547,-0.85114 0.35146,-1.43303 0.0347,-0.43922 0.059,-0.51889 0.20156,-0.66146 0.22411,-0.22411 0.47738,-0.21768 0.71317,0.0181 l 0.1802,0.1802 -0.0346,0.56945 c -0.0445,0.73279 -0.16692,1.20579 -0.48307,1.86621 -0.55617,1.16179 -1.49769,2.03841 -2.67836,2.49372 -0.57725,0.22261 -0.88772,0.23232 -1.08609,0.034 z m -8.02117,6.72977 c -0.241517,-0.0655 -0.580878,-0.20479 -0.754139,-0.30955 -0.429148,-0.25949 -1.545813,-1.41121 -1.740205,-1.79483 -0.452943,-0.89384 -0.448534,-1.89098 0.01411,-3.18755 0.07239,-0.20288 0.140576,-0.63444 0.182974,-1.15812 0.07722,-0.95357 0.02922,-1.47623 -0.208009,-2.26493 -0.176501,-0.58681 -0.152336,-0.82881 0.113465,-1.1363 0.161601,-0.18694 0.231863,-0.22208 0.494412,-0.24731 0.249725,-0.024 0.364213,-9.5e-4 0.622153,0.12525 0.412356,0.20175 0.881062,0.70316 1.105379,1.18253 0.0985,0.21047 0.20919,0.38267 0.24598,0.38267 0.0368,0 1.03311,-0.96361 2.21402,-2.14137 1.91191,-1.90679 2.17552,-2.14885 2.40636,-2.20965 0.74545,-0.19632 1.47525,0.37618 1.47525,1.15729 0,0.35732 -0.15822,0.59236 -0.9076,1.34829 -0.68733,0.69335 -0.84348,0.9047 -0.66837,0.9047 0.14388,0 0.50131,0.30347 0.63263,0.53712 0.1423,0.2532 0.1813,0.60075 0.10217,0.91075 -0.0451,0.17689 -0.0348,0.19056 0.27628,0.36614 0.46255,0.26105 0.64675,0.58822 0.61008,1.08366 -0.0149,0.20104 -0.0377,0.40345 -0.0508,0.44979 -0.0139,0.0494 0.0492,0.11933 0.15261,0.16903 0.25374,0.12191 0.55961,0.42202 0.65377,0.64146 0.10428,0.24304 0.10395,0.67333 -7.1e-4,0.91512 -0.10942,0.2528 -3.14521,3.25543 -3.59288,3.55363 -0.49124,0.32723 -0.74692,0.44915 -1.32162,0.63022 -0.6954,0.21908 -1.46206,0.25336 -2.05731,0.092 z" />
  </g>
</svg>
