<?xml version="1.0" standalone="no"?>
<!DOCTYPE svg PUBLIC "-//W3C//DTD SVG 1.1//EN" "http://www.w3.org/Graphics/SVG/1.1/DTD/svg11.dtd">
<svg xmlns="http://www.w3.org/2000/svg">
<metadata>Copyright (C) 2018 by original authors @ fontello.com</metadata>
<defs>
<font id="fontello" horiz-adv-x="1000" >
<font-face font-family="fontello" font-weight="400" font-stretch="normal" units-per-em="1000" ascent="850" descent="-150" />
<missing-glyph horiz-adv-x="1000" />
<glyph glyph-name="basket" unicode="&#xe800;" d="M139 76c45 0 79-35 79-79 0-43-34-78-79-78-43 0-78 35-78 78 0 44 35 79 78 79z m530 0c44 0 77-35 77-79 0-43-33-78-77-78s-79 35-79 78c0 44 35 79 79 79z m-478 588l565 0c38 0 55-22 55-50l0-233c0-27-20-48-46-50l-505-57c-41-5-46-58 3-58l478 0c55 0 55-82 0-82l-488 0c-110 0-152 122-65 185l43 33-155 339-76 0c-59 0-59 90 0 90l89 0c45 0 57-22 71-54z m345-70l-130 0 27-85 123 0z m-312 0l39-85 126 0-28 85-137 0z m109-241l100 10-33 101-119 0z m143 15l113 11-25 85-119 0z m267 29l0 67-133 0 20-78z m0 112l0 85-162 0 19-85 143 0z" horiz-adv-x="811" />

<glyph glyph-name="star-empty" unicode="&#xe801;" d="M3 436q-12 31 16 50t91 18h242l74 222v1q14 45 33 68t40 23q20 0 39-23t33-68l1-1 73-222h242q63 0 91-18t16-50-64-68l-5-4-190-135 74-221 1-3q19-60 11-91t-40-32q-37 0-88 38l-2 2-3 1-189 136-192-137-3-2q-52-39-88-39-31 0-40 32t11 92l1 3 74 221-190 135-2 3-3 1q-51 37-64 68z m165-26l203-145-21-65-57-173 206 147 205-147-57 173-21 65 203 145h-251l-21 65-58 175-80-240h-251z" horiz-adv-x="997.6" />

<glyph glyph-name="heart" unicode="&#xe802;" d="M500-79q-14 0-25 10l-348 336q-5 5-15 15t-31 37-38 54-30 67-13 77q0 123 71 192t196 70q34 0 70-12t67-33 54-38 42-38q20 20 42 38t54 38 67 33 70 12q125 0 196-70t71-192q0-123-128-251l-347-335q-10-10-25-10z" horiz-adv-x="1000" />

<glyph glyph-name="heart-empty" unicode="&#xe803;" d="M929 517q0 46-12 80t-31 55-46 33-52 18-55 4-62-14-62-36-48-40-34-34q-10-13-27-13t-27 13q-14 15-34 34t-48 40-62 36-62 14-55-4-52-18-46-33-31-55-12-80q0-93 105-198l324-312 324 312q105 105 105 198z m71 0q0-123-128-251l-347-335q-10-10-25-10t-25 10l-348 336q-5 5-15 15t-31 37-38 54-30 67-13 77q0 123 71 192t196 70q34 0 70-12t67-33 54-38 42-38q20 20 42 38t54 38 67 33 70 12q125 0 196-70t71-192z" horiz-adv-x="1000" />

<glyph glyph-name="user" unicode="&#xf061;" d="M0-119q0 9 1 23t11 47 27 49q17 17 68 38t115 43 93 38q38 19 59 56t20 76q0 27-32 63-33 38-53 102t-20 149q0 64 18 113t49 80 71 45 85 15 85-15 71-45 49-80 18-113q0-84-20-149t-52-102q-33-37-33-63 0-39 21-76t59-56q29-15 93-38t114-43 68-38q17-17 27-47t11-51l1-21h-1024z" horiz-adv-x="1024.9" />

<glyph glyph-name="menu" unicode="&#xf0c9;" d="M857 100v-71q0-15-10-25t-26-11h-785q-15 0-25 11t-11 25v71q0 15 11 25t25 11h785q15 0 26-11t10-25z m0 286v-72q0-14-10-25t-26-10h-785q-15 0-25 10t-11 25v72q0 14 11 25t25 10h785q15 0 26-10t10-25z m0 285v-71q0-14-10-25t-26-11h-785q-15 0-25 11t-11 25v71q0 15 11 26t25 10h785q15 0 26-10t10-26z" horiz-adv-x="857.1" />
</font>
</defs>
</svg>